
20230806   10:00 F001        Pad Thai               0100     2
20230806   10:05 F002        Green Curry            0120     3
20230806   10:10 F001        Pad Thai               0100     1
20230806   10:15 F003        Fried Rice             0090     4
20230806   10:20 F002        Green Curry            0120     2
20230806   10:25 F003        Fried Rice             0090     3
20230806   10:30 F002        Green Curry            0120     1
20230806   10:35 F003        Fried Rice             0090     5
20230806   10:40 F001        Pad Thai               0100     2
20230806   10:45 F001        Pad Thai               0100     2
20230806   10:50 F002        Green Curry            0120     3
20230806   10:55 F002        Green Curry            0120     1
20230806   11:00 F003        Fried Rice             0090     2
20230806   11:05 F003        Fried Rice             0090     4
20230806   11:10 F001        Pad Thai               0100     1
20230806   11:15 F002        Green Curry            0120     5
20230806   11:20 F001        Pad Thai               0100     2
20230806   11:25 F003        Fried Rice             0090     2
20230806   11:30 F001        Pad Thai               0100     3
20230806   11:35 F002        Green Curry            0120     2
20230806   11:40 F002        Green Curry            0120     1
20230806   11:45 F003        Fried Rice             0090     2
20230806   11:50 F001        Pad Thai               0100     4
20230806   11:55 F003        Fried Rice             0090     3
20230806   12:00 F002        Green Curry            0120     5
20230806   12:05 F003        Fried Rice             0090     2
20230806   12:10 F001        Pad Thai               0100     1
20230806   12:15 F001        Pad Thai               0100     2
20230806   12:20 F002        Green Curry            0120     3
20230806   12:25 F003        Fried Rice             0090     4
20230806   12:30 F002        Green Curry            0120     2
20230806   12:35 F001        Pad Thai               0100     1
20230806   12:40 F002        Green Curry            0120     3
20230806   12:45 F003        Fried Rice             0090     2
20230806   12:50 F002        Green Curry            0120     4
20230806   12:55 F001        Pad Thai               0100     3
20230806   13:00 F001        Pad Thai               0100     5
20230806   13:05 F003        Fried Rice             0090     1
20230806   13:10 F002        Green Curry            0120     2
20230806   13:15 F003        Fried Rice             0090     1
20230806   13:20 F003        Fried Rice             0090     2
20230806   13:25 F001        Pad Thai               0100     1

BRANCH        TOTAL
A            00003950
B            00003950
C            00003950
